GFORTRAN module version '0' created from meam_data.F on Wed Oct 21 11:07:35 2015
MD5:9c5b44464bf4be822c798d95c8fb257c -- If you edit this, you'll get what you deserve.

(() () () () () () () () () () () () () () () () () () () () () () () ()
() () ())

()

()

()

()

(2 'a_meam' 'meam_data' 'a_meam' 1 ((VARIABLE UNKNOWN-INTENT
UNKNOWN-PROC UNKNOWN UNKNOWN DIMENSION) (REAL 8 0 0 REAL ()) 0 0 () (1
EXPLICIT (CONSTANT (INTEGER 4 0 0 INTEGER ()) 0 '1') (CONSTANT (INTEGER
4 0 0 INTEGER ()) 0 '5')) 0 () () () 0 0)
3 'alpha_meam' 'meam_data' 'alpha_meam' 1 ((VARIABLE UNKNOWN-INTENT
UNKNOWN-PROC UNKNOWN UNKNOWN DIMENSION) (REAL 8 0 0 REAL ()) 0 0 () (2
EXPLICIT (CONSTANT (INTEGER 4 0 0 INTEGER ()) 0 '1') (CONSTANT (INTEGER
4 0 0 INTEGER ()) 0 '5') (CONSTANT (INTEGER 4 0 0 INTEGER ()) 0 '1') (
CONSTANT (INTEGER 4 0 0 INTEGER ()) 0 '5')) 0 () () () 0 0)
4 'attrac_meam' 'meam_data' 'attrac_meam' 1 ((VARIABLE UNKNOWN-INTENT
UNKNOWN-PROC UNKNOWN UNKNOWN DIMENSION) (REAL 8 0 0 REAL ()) 0 0 () (2
EXPLICIT (CONSTANT (INTEGER 4 0 0 INTEGER ()) 0 '1') (CONSTANT (INTEGER
4 0 0 INTEGER ()) 0 '5') (CONSTANT (INTEGER 4 0 0 INTEGER ()) 0 '1') (
CONSTANT (INTEGER 4 0 0 INTEGER ()) 0 '5')) 0 () () () 0 0)
5 'augt1' 'meam_data' 'augt1' 1 ((VARIABLE UNKNOWN-INTENT UNKNOWN-PROC
UNKNOWN UNKNOWN) (INTEGER 4 0 0 INTEGER ()) 0 0 () () 0 () () () 0 0)
6 'beta0_meam' 'meam_data' 'beta0_meam' 1 ((VARIABLE UNKNOWN-INTENT
UNKNOWN-PROC UNKNOWN UNKNOWN DIMENSION) (REAL 8 0 0 REAL ()) 0 0 () (1
EXPLICIT (CONSTANT (INTEGER 4 0 0 INTEGER ()) 0 '1') (CONSTANT (INTEGER
4 0 0 INTEGER ()) 0 '5')) 0 () () () 0 0)
7 'beta1_meam' 'meam_data' 'beta1_meam' 1 ((VARIABLE UNKNOWN-INTENT
UNKNOWN-PROC UNKNOWN UNKNOWN DIMENSION) (REAL 8 0 0 REAL ()) 0 0 () (1
EXPLICIT (CONSTANT (INTEGER 4 0 0 INTEGER ()) 0 '1') (CONSTANT (INTEGER
4 0 0 INTEGER ()) 0 '5')) 0 () () () 0 0)
8 'beta2_meam' 'meam_data' 'beta2_meam' 1 ((VARIABLE UNKNOWN-INTENT
UNKNOWN-PROC UNKNOWN UNKNOWN DIMENSION) (REAL 8 0 0 REAL ()) 0 0 () (1
EXPLICIT (CONSTANT (INTEGER 4 0 0 INTEGER ()) 0 '1') (CONSTANT (INTEGER
4 0 0 INTEGER ()) 0 '5')) 0 () () () 0 0)
9 'beta3_meam' 'meam_data' 'beta3_meam' 1 ((VARIABLE UNKNOWN-INTENT
UNKNOWN-PROC UNKNOWN UNKNOWN DIMENSION) (REAL 8 0 0 REAL ()) 0 0 () (1
EXPLICIT (CONSTANT (INTEGER 4 0 0 INTEGER ()) 0 '1') (CONSTANT (INTEGER
4 0 0 INTEGER ()) 0 '5')) 0 () () () 0 0)
10 'bkgd_dyn' 'meam_data' 'bkgd_dyn' 1 ((VARIABLE UNKNOWN-INTENT
UNKNOWN-PROC UNKNOWN UNKNOWN) (INTEGER 4 0 0 INTEGER ()) 0 0 () () 0 ()
() () 0 0)
11 'cmax_meam' 'meam_data' 'cmax_meam' 1 ((VARIABLE UNKNOWN-INTENT
UNKNOWN-PROC UNKNOWN UNKNOWN DIMENSION) (REAL 8 0 0 REAL ()) 0 0 () (3
EXPLICIT (CONSTANT (INTEGER 4 0 0 INTEGER ()) 0 '1') (CONSTANT (INTEGER
4 0 0 INTEGER ()) 0 '5') (CONSTANT (INTEGER 4 0 0 INTEGER ()) 0 '1') (
CONSTANT (INTEGER 4 0 0 INTEGER ()) 0 '5') (CONSTANT (INTEGER 4 0 0
INTEGER ()) 0 '1') (CONSTANT (INTEGER 4 0 0 INTEGER ()) 0 '5')) 0 () ()
() 0 0)
12 'cmin_meam' 'meam_data' 'cmin_meam' 1 ((VARIABLE UNKNOWN-INTENT
UNKNOWN-PROC UNKNOWN UNKNOWN DIMENSION) (REAL 8 0 0 REAL ()) 0 0 () (3
EXPLICIT (CONSTANT (INTEGER 4 0 0 INTEGER ()) 0 '1') (CONSTANT (INTEGER
4 0 0 INTEGER ()) 0 '5') (CONSTANT (INTEGER 4 0 0 INTEGER ()) 0 '1') (
CONSTANT (INTEGER 4 0 0 INTEGER ()) 0 '5') (CONSTANT (INTEGER 4 0 0
INTEGER ()) 0 '1') (CONSTANT (INTEGER 4 0 0 INTEGER ()) 0 '5')) 0 () ()
() 0 0)
13 'cutforce' 'meam_data' 'cutforce' 1 ((VARIABLE UNKNOWN-INTENT
UNKNOWN-PROC UNKNOWN UNKNOWN) (REAL 8 0 0 REAL ()) 0 0 () () 0 () () ()
0 0)
14 'cutforcesq' 'meam_data' 'cutforcesq' 1 ((VARIABLE UNKNOWN-INTENT
UNKNOWN-PROC UNKNOWN UNKNOWN) (REAL 8 0 0 REAL ()) 0 0 () () 0 () () ()
0 0)
15 'delr_meam' 'meam_data' 'delr_meam' 1 ((VARIABLE UNKNOWN-INTENT
UNKNOWN-PROC UNKNOWN UNKNOWN) (REAL 8 0 0 REAL ()) 0 0 () () 0 () () ()
0 0)
16 'delta_meam' 'meam_data' 'delta_meam' 1 ((VARIABLE UNKNOWN-INTENT
UNKNOWN-PROC UNKNOWN UNKNOWN DIMENSION) (REAL 8 0 0 REAL ()) 0 0 () (2
EXPLICIT (CONSTANT (INTEGER 4 0 0 INTEGER ()) 0 '1') (CONSTANT (INTEGER
4 0 0 INTEGER ()) 0 '5') (CONSTANT (INTEGER 4 0 0 INTEGER ()) 0 '1') (
CONSTANT (INTEGER 4 0 0 INTEGER ()) 0 '5')) 0 () () () 0 0)
17 'dr' 'meam_data' 'dr' 1 ((VARIABLE UNKNOWN-INTENT UNKNOWN-PROC
UNKNOWN UNKNOWN) (REAL 8 0 0 REAL ()) 0 0 () () 0 () () () 0 0)
18 'ebound_meam' 'meam_data' 'ebound_meam' 1 ((VARIABLE UNKNOWN-INTENT
UNKNOWN-PROC UNKNOWN UNKNOWN DIMENSION) (REAL 8 0 0 REAL ()) 0 0 () (2
EXPLICIT (CONSTANT (INTEGER 4 0 0 INTEGER ()) 0 '1') (CONSTANT (INTEGER
4 0 0 INTEGER ()) 0 '5') (CONSTANT (INTEGER 4 0 0 INTEGER ()) 0 '1') (
CONSTANT (INTEGER 4 0 0 INTEGER ()) 0 '5')) 0 () () () 0 0)
19 'ec_meam' 'meam_data' 'ec_meam' 1 ((VARIABLE UNKNOWN-INTENT
UNKNOWN-PROC UNKNOWN UNKNOWN DIMENSION) (REAL 8 0 0 REAL ()) 0 0 () (2
EXPLICIT (CONSTANT (INTEGER 4 0 0 INTEGER ()) 0 '1') (CONSTANT (INTEGER
4 0 0 INTEGER ()) 0 '5') (CONSTANT (INTEGER 4 0 0 INTEGER ()) 0 '1') (
CONSTANT (INTEGER 4 0 0 INTEGER ()) 0 '5')) 0 () () () 0 0)
20 'eltind' 'meam_data' 'eltind' 1 ((VARIABLE UNKNOWN-INTENT
UNKNOWN-PROC UNKNOWN UNKNOWN DIMENSION) (INTEGER 4 0 0 INTEGER ()) 0 0 ()
(2 EXPLICIT (CONSTANT (INTEGER 4 0 0 INTEGER ()) 0 '1') (CONSTANT (
INTEGER 4 0 0 INTEGER ()) 0 '5') (CONSTANT (INTEGER 4 0 0 INTEGER ()) 0
'1') (CONSTANT (INTEGER 4 0 0 INTEGER ()) 0 '5')) 0 () () () 0 0)
21 'emb_lin_neg' 'meam_data' 'emb_lin_neg' 1 ((VARIABLE UNKNOWN-INTENT
UNKNOWN-PROC UNKNOWN UNKNOWN) (INTEGER 4 0 0 INTEGER ()) 0 0 () () 0 ()
() () 0 0)
22 'erose_form' 'meam_data' 'erose_form' 1 ((VARIABLE UNKNOWN-INTENT
UNKNOWN-PROC UNKNOWN UNKNOWN) (INTEGER 4 0 0 INTEGER ()) 0 0 () () 0 ()
() () 0 0)
23 'gsmooth_factor' 'meam_data' 'gsmooth_factor' 1 ((VARIABLE
UNKNOWN-INTENT UNKNOWN-PROC UNKNOWN UNKNOWN) (REAL 8 0 0 REAL ()) 0 0 ()
() 0 () () () 0 0)
24 'ialloy' 'meam_data' 'ialloy' 1 ((VARIABLE UNKNOWN-INTENT
UNKNOWN-PROC UNKNOWN UNKNOWN) (INTEGER 4 0 0 INTEGER ()) 0 0 () () 0 ()
() () 0 0)
25 'ibar_meam' 'meam_data' 'ibar_meam' 1 ((VARIABLE UNKNOWN-INTENT
UNKNOWN-PROC UNKNOWN UNKNOWN DIMENSION) (INTEGER 4 0 0 INTEGER ()) 0 0 ()
(1 EXPLICIT (CONSTANT (INTEGER 4 0 0 INTEGER ()) 0 '1') (CONSTANT (
INTEGER 4 0 0 INTEGER ()) 0 '5')) 0 () () () 0 0)
26 'ielt_meam' 'meam_data' 'ielt_meam' 1 ((VARIABLE UNKNOWN-INTENT
UNKNOWN-PROC UNKNOWN UNKNOWN DIMENSION) (INTEGER 4 0 0 INTEGER ()) 0 0 ()
(1 EXPLICIT (CONSTANT (INTEGER 4 0 0 INTEGER ()) 0 '1') (CONSTANT (
INTEGER 4 0 0 INTEGER ()) 0 '5')) 0 () () () 0 0)
27 'lattce_meam' 'meam_data' 'lattce_meam' 1 ((VARIABLE UNKNOWN-INTENT
UNKNOWN-PROC UNKNOWN UNKNOWN DIMENSION) (CHARACTER 1 0 0 CHARACTER ((
CONSTANT (INTEGER 4 0 0 INTEGER ()) 0 '3'))) 0 0 () (2 EXPLICIT (
CONSTANT (INTEGER 4 0 0 INTEGER ()) 0 '1') (CONSTANT (INTEGER 4 0 0
INTEGER ()) 0 '5') (CONSTANT (INTEGER 4 0 0 INTEGER ()) 0 '1') (
CONSTANT (INTEGER 4 0 0 INTEGER ()) 0 '5')) 0 () () () 0 0)
28 'maxelt' 'meam_data' 'maxelt' 1 ((PARAMETER UNKNOWN-INTENT
UNKNOWN-PROC UNKNOWN IMPLICIT-SAVE) (INTEGER 4 0 0 INTEGER ()) 0 0 () (
CONSTANT (INTEGER 4 0 0 INTEGER ()) 0 '5') () 0 () () () 0 0)
29 'meam_data' 'meam_data' 'meam_data' 1 ((MODULE UNKNOWN-INTENT
UNKNOWN-PROC UNKNOWN UNKNOWN) (UNKNOWN 0 0 0 UNKNOWN ()) 0 0 () () 0 ()
() () 0 0)
30 'mix_ref_t' 'meam_data' 'mix_ref_t' 1 ((VARIABLE UNKNOWN-INTENT
UNKNOWN-PROC UNKNOWN UNKNOWN) (INTEGER 4 0 0 INTEGER ()) 0 0 () () 0 ()
() () 0 0)
31 'neltypes' 'meam_data' 'neltypes' 1 ((VARIABLE UNKNOWN-INTENT
UNKNOWN-PROC UNKNOWN UNKNOWN) (INTEGER 4 0 0 INTEGER ()) 0 0 () () 0 ()
() () 0 0)
32 'nn2_meam' 'meam_data' 'nn2_meam' 1 ((VARIABLE UNKNOWN-INTENT
UNKNOWN-PROC UNKNOWN UNKNOWN DIMENSION) (INTEGER 4 0 0 INTEGER ()) 0 0 ()
(2 EXPLICIT (CONSTANT (INTEGER 4 0 0 INTEGER ()) 0 '1') (CONSTANT (
INTEGER 4 0 0 INTEGER ()) 0 '5') (CONSTANT (INTEGER 4 0 0 INTEGER ()) 0
'1') (CONSTANT (INTEGER 4 0 0 INTEGER ()) 0 '5')) 0 () () () 0 0)
33 'nr' 'meam_data' 'nr' 1 ((VARIABLE UNKNOWN-INTENT UNKNOWN-PROC
UNKNOWN UNKNOWN) (INTEGER 4 0 0 INTEGER ()) 0 0 () () 0 () () () 0 0)
34 'nrar' 'meam_data' 'nrar' 1 ((VARIABLE UNKNOWN-INTENT UNKNOWN-PROC
UNKNOWN UNKNOWN) (INTEGER 4 0 0 INTEGER ()) 0 0 () () 0 () () () 0 0)
35 'omega_meam' 'meam_data' 'omega_meam' 1 ((VARIABLE UNKNOWN-INTENT
UNKNOWN-PROC UNKNOWN UNKNOWN DIMENSION) (REAL 8 0 0 REAL ()) 0 0 () (1
EXPLICIT (CONSTANT (INTEGER 4 0 0 INTEGER ()) 0 '1') (CONSTANT (INTEGER
4 0 0 INTEGER ()) 0 '5')) 0 () () () 0 0)
36 'phir' 'meam_data' 'phir' 1 ((VARIABLE UNKNOWN-INTENT UNKNOWN-PROC
UNKNOWN UNKNOWN ALLOCATABLE DIMENSION) (REAL 8 0 0 REAL ()) 0 0 () (2
DEFERRED () () () ()) 0 () () () 0 0)
37 'phirar' 'meam_data' 'phirar' 1 ((VARIABLE UNKNOWN-INTENT
UNKNOWN-PROC UNKNOWN UNKNOWN ALLOCATABLE DIMENSION) (REAL 8 0 0 REAL ())
0 0 () (2 DEFERRED () () () ()) 0 () () () 0 0)
38 'phirar1' 'meam_data' 'phirar1' 1 ((VARIABLE UNKNOWN-INTENT
UNKNOWN-PROC UNKNOWN UNKNOWN ALLOCATABLE DIMENSION) (REAL 8 0 0 REAL ())
0 0 () (2 DEFERRED () () () ()) 0 () () () 0 0)
39 'phirar2' 'meam_data' 'phirar2' 1 ((VARIABLE UNKNOWN-INTENT
UNKNOWN-PROC UNKNOWN UNKNOWN ALLOCATABLE DIMENSION) (REAL 8 0 0 REAL ())
0 0 () (2 DEFERRED () () () ()) 0 () () () 0 0)
40 'phirar3' 'meam_data' 'phirar3' 1 ((VARIABLE UNKNOWN-INTENT
UNKNOWN-PROC UNKNOWN UNKNOWN ALLOCATABLE DIMENSION) (REAL 8 0 0 REAL ())
0 0 () (2 DEFERRED () () () ()) 0 () () () 0 0)
41 'phirar4' 'meam_data' 'phirar4' 1 ((VARIABLE UNKNOWN-INTENT
UNKNOWN-PROC UNKNOWN UNKNOWN ALLOCATABLE DIMENSION) (REAL 8 0 0 REAL ())
0 0 () (2 DEFERRED () () () ()) 0 () () () 0 0)
42 'phirar5' 'meam_data' 'phirar5' 1 ((VARIABLE UNKNOWN-INTENT
UNKNOWN-PROC UNKNOWN UNKNOWN ALLOCATABLE DIMENSION) (REAL 8 0 0 REAL ())
0 0 () (2 DEFERRED () () () ()) 0 () () () 0 0)
43 'phirar6' 'meam_data' 'phirar6' 1 ((VARIABLE UNKNOWN-INTENT
UNKNOWN-PROC UNKNOWN UNKNOWN ALLOCATABLE DIMENSION) (REAL 8 0 0 REAL ())
0 0 () (2 DEFERRED () () () ()) 0 () () () 0 0)
44 'rc_meam' 'meam_data' 'rc_meam' 1 ((VARIABLE UNKNOWN-INTENT
UNKNOWN-PROC UNKNOWN UNKNOWN) (REAL 8 0 0 REAL ()) 0 0 () () 0 () () ()
0 0)
45 'rdrar' 'meam_data' 'rdrar' 1 ((VARIABLE UNKNOWN-INTENT UNKNOWN-PROC
UNKNOWN UNKNOWN) (REAL 8 0 0 REAL ()) 0 0 () () 0 () () () 0 0)
46 're_meam' 'meam_data' 're_meam' 1 ((VARIABLE UNKNOWN-INTENT
UNKNOWN-PROC UNKNOWN UNKNOWN DIMENSION) (REAL 8 0 0 REAL ()) 0 0 () (2
EXPLICIT (CONSTANT (INTEGER 4 0 0 INTEGER ()) 0 '1') (CONSTANT (INTEGER
4 0 0 INTEGER ()) 0 '5') (CONSTANT (INTEGER 4 0 0 INTEGER ()) 0 '1') (
CONSTANT (INTEGER 4 0 0 INTEGER ()) 0 '5')) 0 () () () 0 0)
47 'repuls_meam' 'meam_data' 'repuls_meam' 1 ((VARIABLE UNKNOWN-INTENT
UNKNOWN-PROC UNKNOWN UNKNOWN DIMENSION) (REAL 8 0 0 REAL ()) 0 0 () (2
EXPLICIT (CONSTANT (INTEGER 4 0 0 INTEGER ()) 0 '1') (CONSTANT (INTEGER
4 0 0 INTEGER ()) 0 '5') (CONSTANT (INTEGER 4 0 0 INTEGER ()) 0 '1') (
CONSTANT (INTEGER 4 0 0 INTEGER ()) 0 '5')) 0 () () () 0 0)
48 'rho0_meam' 'meam_data' 'rho0_meam' 1 ((VARIABLE UNKNOWN-INTENT
UNKNOWN-PROC UNKNOWN UNKNOWN DIMENSION) (REAL 8 0 0 REAL ()) 0 0 () (1
EXPLICIT (CONSTANT (INTEGER 4 0 0 INTEGER ()) 0 '1') (CONSTANT (INTEGER
4 0 0 INTEGER ()) 0 '5')) 0 () () () 0 0)
49 'rho_ref_meam' 'meam_data' 'rho_ref_meam' 1 ((VARIABLE UNKNOWN-INTENT
UNKNOWN-PROC UNKNOWN UNKNOWN DIMENSION) (REAL 8 0 0 REAL ()) 0 0 () (1
EXPLICIT (CONSTANT (INTEGER 4 0 0 INTEGER ()) 0 '1') (CONSTANT (INTEGER
4 0 0 INTEGER ()) 0 '5')) 0 () () () 0 0)
50 't0_meam' 'meam_data' 't0_meam' 1 ((VARIABLE UNKNOWN-INTENT
UNKNOWN-PROC UNKNOWN UNKNOWN DIMENSION) (REAL 8 0 0 REAL ()) 0 0 () (1
EXPLICIT (CONSTANT (INTEGER 4 0 0 INTEGER ()) 0 '1') (CONSTANT (INTEGER
4 0 0 INTEGER ()) 0 '5')) 0 () () () 0 0)
51 't1_meam' 'meam_data' 't1_meam' 1 ((VARIABLE UNKNOWN-INTENT
UNKNOWN-PROC UNKNOWN UNKNOWN DIMENSION) (REAL 8 0 0 REAL ()) 0 0 () (1
EXPLICIT (CONSTANT (INTEGER 4 0 0 INTEGER ()) 0 '1') (CONSTANT (INTEGER
4 0 0 INTEGER ()) 0 '5')) 0 () () () 0 0)
52 't2_meam' 'meam_data' 't2_meam' 1 ((VARIABLE UNKNOWN-INTENT
UNKNOWN-PROC UNKNOWN UNKNOWN DIMENSION) (REAL 8 0 0 REAL ()) 0 0 () (1
EXPLICIT (CONSTANT (INTEGER 4 0 0 INTEGER ()) 0 '1') (CONSTANT (INTEGER
4 0 0 INTEGER ()) 0 '5')) 0 () () () 0 0)
53 't3_meam' 'meam_data' 't3_meam' 1 ((VARIABLE UNKNOWN-INTENT
UNKNOWN-PROC UNKNOWN UNKNOWN DIMENSION) (REAL 8 0 0 REAL ()) 0 0 () (1
EXPLICIT (CONSTANT (INTEGER 4 0 0 INTEGER ()) 0 '1') (CONSTANT (INTEGER
4 0 0 INTEGER ()) 0 '5')) 0 () () () 0 0)
54 'v2d' 'meam_data' 'v2d' 1 ((VARIABLE UNKNOWN-INTENT UNKNOWN-PROC
UNKNOWN UNKNOWN DIMENSION) (INTEGER 4 0 0 INTEGER ()) 0 0 () (1 EXPLICIT
(CONSTANT (INTEGER 4 0 0 INTEGER ()) 0 '1') (CONSTANT (INTEGER 4 0 0
INTEGER ()) 0 '6')) 0 () () () 0 0)
55 'v3d' 'meam_data' 'v3d' 1 ((VARIABLE UNKNOWN-INTENT UNKNOWN-PROC
UNKNOWN UNKNOWN DIMENSION) (INTEGER 4 0 0 INTEGER ()) 0 0 () (1 EXPLICIT
(CONSTANT (INTEGER 4 0 0 INTEGER ()) 0 '1') (CONSTANT (INTEGER 4 0 0
INTEGER ()) 0 '10')) 0 () () () 0 0)
56 'vind2d' 'meam_data' 'vind2d' 1 ((VARIABLE UNKNOWN-INTENT
UNKNOWN-PROC UNKNOWN UNKNOWN DIMENSION) (INTEGER 4 0 0 INTEGER ()) 0 0 ()
(2 EXPLICIT (CONSTANT (INTEGER 4 0 0 INTEGER ()) 0 '1') (CONSTANT (
INTEGER 4 0 0 INTEGER ()) 0 '3') (CONSTANT (INTEGER 4 0 0 INTEGER ()) 0
'1') (CONSTANT (INTEGER 4 0 0 INTEGER ()) 0 '3')) 0 () () () 0 0)
57 'vind3d' 'meam_data' 'vind3d' 1 ((VARIABLE UNKNOWN-INTENT
UNKNOWN-PROC UNKNOWN UNKNOWN DIMENSION) (INTEGER 4 0 0 INTEGER ()) 0 0 ()
(3 EXPLICIT (CONSTANT (INTEGER 4 0 0 INTEGER ()) 0 '1') (CONSTANT (
INTEGER 4 0 0 INTEGER ()) 0 '3') (CONSTANT (INTEGER 4 0 0 INTEGER ()) 0
'1') (CONSTANT (INTEGER 4 0 0 INTEGER ()) 0 '3') (CONSTANT (INTEGER 4 0
0 INTEGER ()) 0 '1') (CONSTANT (INTEGER 4 0 0 INTEGER ()) 0 '3')) 0 () ()
() 0 0)
58 'z_meam' 'meam_data' 'z_meam' 1 ((VARIABLE UNKNOWN-INTENT
UNKNOWN-PROC UNKNOWN UNKNOWN DIMENSION) (REAL 8 0 0 REAL ()) 0 0 () (1
EXPLICIT (CONSTANT (INTEGER 4 0 0 INTEGER ()) 0 '1') (CONSTANT (INTEGER
4 0 0 INTEGER ()) 0 '5')) 0 () () () 0 0)
59 'zbl_meam' 'meam_data' 'zbl_meam' 1 ((VARIABLE UNKNOWN-INTENT
UNKNOWN-PROC UNKNOWN UNKNOWN DIMENSION) (INTEGER 4 0 0 INTEGER ()) 0 0 ()
(2 EXPLICIT (CONSTANT (INTEGER 4 0 0 INTEGER ()) 0 '1') (CONSTANT (
INTEGER 4 0 0 INTEGER ()) 0 '5') (CONSTANT (INTEGER 4 0 0 INTEGER ()) 0
'1') (CONSTANT (INTEGER 4 0 0 INTEGER ()) 0 '5')) 0 () () () 0 0)
)

('a_meam' 0 2 'alpha_meam' 0 3 'attrac_meam' 0 4 'augt1' 0 5 'beta0_meam'
0 6 'beta1_meam' 0 7 'beta2_meam' 0 8 'beta3_meam' 0 9 'bkgd_dyn' 0 10
'cmax_meam' 0 11 'cmin_meam' 0 12 'cutforce' 0 13 'cutforcesq' 0 14
'delr_meam' 0 15 'delta_meam' 0 16 'dr' 0 17 'ebound_meam' 0 18 'ec_meam'
0 19 'eltind' 0 20 'emb_lin_neg' 0 21 'erose_form' 0 22 'gsmooth_factor'
0 23 'ialloy' 0 24 'ibar_meam' 0 25 'ielt_meam' 0 26 'lattce_meam' 0 27
'maxelt' 0 28 'meam_data' 0 29 'mix_ref_t' 0 30 'neltypes' 0 31 'nn2_meam'
0 32 'nr' 0 33 'nrar' 0 34 'omega_meam' 0 35 'phir' 0 36 'phirar' 0 37
'phirar1' 0 38 'phirar2' 0 39 'phirar3' 0 40 'phirar4' 0 41 'phirar5' 0
42 'phirar6' 0 43 'rc_meam' 0 44 'rdrar' 0 45 're_meam' 0 46 'repuls_meam'
0 47 'rho0_meam' 0 48 'rho_ref_meam' 0 49 't0_meam' 0 50 't1_meam' 0 51
't2_meam' 0 52 't3_meam' 0 53 'v2d' 0 54 'v3d' 0 55 'vind2d' 0 56 'vind3d'
0 57 'z_meam' 0 58 'zbl_meam' 0 59)
